04_Implementations/03_CycloneIV/stp1.vcd
$comment
Copyright (C) 1991-2015 Altera Corporation. All rights reserved.
Your use of Altera Corporation's design tools, logic functions 
and other software and tools, and its AMPP partner logic 
functions, and any output files from any of the foregoing 
(including device programming or simulation files), and any 
associated documentation or information are expressly subject 
to the terms and conditions of the Altera Program License 
Subscription Agreement, the Altera Quartus Prime License Agreement,
the Altera MegaCore Function License Agreement, or other 
applicable license agreement, including, without limitation, 
that your use is for the sole purpose of programming logic 
devices manufactured by Altera and sold by Altera or its 
authorized distributors.  Please refer to the applicable 
agreement for further details.
$end

$date 
  02/12/2018 10:19:35 
$end
$version 
 QUARTUS_VCD_EXPORT 1.0 
$end
$timescale
  1 ps
$end
$scope module nut $end
$var reg 1 ! RC[55] $end
$var reg 1 " RC[54] $end
$var reg 1 # RC[53] $end
$var reg 1 $ RC[52] $end
$var reg 1 % RC[51] $end
$var reg 1 & RC[50] $end
$var reg 1 ' RC[49] $end
$var reg 1 ( RC[48] $end
$var reg 1 ) RC[47] $end
$var reg 1 * RC[46] $end
$var reg 1 + RC[45] $end
$var reg 1 , RC[44] $end
$var reg 1 - RC[43] $end
$var reg 1 . RC[42] $end
$var reg 1 / RC[41] $end
$var reg 1 0 RC[40] $end
$var reg 1 1 RC[39] $end
$var reg 1 2 RC[38] $end
$var reg 1 3 RC[37] $end
$var reg 1 4 RC[36] $end
$var reg 1 5 RC[35] $end
$var reg 1 6 RC[34] $end
$var reg 1 7 RC[33] $end
$var reg 1 8 RC[32] $end
$var reg 1 9 RC[31] $end
$var reg 1 : RC[30] $end
$var reg 1 ; RC[29] $end
$var reg 1 < RC[28] $end
$var reg 1 = RC[27] $end
$var reg 1 > RC[26] $end
$var reg 1 ? RC[25] $end
$var reg 1 @ RC[24] $end
$var reg 1 A RC[23] $end
$var reg 1 B RC[22] $end
$var reg 1 C RC[21] $end
$var reg 1 D RC[20] $end
$var reg 1 E RC[19] $end
$var reg 1 F RC[18] $end
$var reg 1 G RC[17] $end
$var reg 1 H RC[16] $end
$var reg 1 I RC[15] $end
$var reg 1 J RC[14] $end
$var reg 1 K RC[13] $end
$var reg 1 L RC[12] $end
$var reg 1 M RC[11] $end
$var reg 1 N RC[10] $end
$var reg 1 O RC[9] $end
$var reg 1 P RC[8] $end
$var reg 1 Q RC[7] $end
$var reg 1 R RC[6] $end
$var reg 1 S RC[5] $end
$var reg 1 T RC[4] $end
$var reg 1 U RC[3] $end
$var reg 1 V RC[2] $end
$var reg 1 W RC[1] $end
$var reg 1 X RC[0] $end
$var reg 1 Y RA[55] $end
$var reg 1 Z RA[54] $end
$var reg 1 [ RA[53] $end
$var reg 1 \ RA[52] $end
$var reg 1 ] RA[51] $end
$var reg 1 ^ RA[50] $end
$var reg 1 _ RA[49] $end
$var reg 1 ` RA[48] $end
$var reg 1 a RA[47] $end
$var reg 1 b RA[46] $end
$var reg 1 c RA[45] $end
$var reg 1 d RA[44] $end
$var reg 1 e RA[43] $end
$var reg 1 f RA[42] $end
$var reg 1 g RA[41] $end
$var reg 1 h RA[40] $end
$var reg 1 i RA[39] $end
$var reg 1 j RA[38] $end
$var reg 1 k RA[37] $end
$var reg 1 l RA[36] $end
$var reg 1 m RA[35] $end
$var reg 1 n RA[34] $end
$var reg 1 o RA[33] $end
$var reg 1 p RA[32] $end
$var reg 1 q RA[31] $end
$var reg 1 r RA[30] $end
$var reg 1 s RA[29] $end
$var reg 1 t RA[28] $end
$var reg 1 u RA[27] $end
$var reg 1 v RA[26] $end
$var reg 1 w RA[25] $end
$var reg 1 x RA[24] $end
$var reg 1 y RA[23] $end
$var reg 1 z RA[22] $end
$var reg 1 { RA[21] $end
$var reg 1 | RA[20] $end
$var reg 1 } RA[19] $end
$var reg 1 ~ RA[18] $end
$var reg 1 !! RA[17] $end
$var reg 1 !" RA[16] $end
$var reg 1 !# RA[15] $end
$var reg 1 !$ RA[14] $end
$var reg 1 !% RA[13] $end
$var reg 1 !& RA[12] $end
$var reg 1 !' RA[11] $end
$var reg 1 !( RA[10] $end
$var reg 1 !) RA[9] $end
$var reg 1 !* RA[8] $end
$var reg 1 !+ RA[7] $end
$var reg 1 !, RA[6] $end
$var reg 1 !- RA[5] $end
$var reg 1 !. RA[4] $end
$var reg 1 !/ RA[3] $end
$var reg 1 !0 RA[2] $end
$var reg 1 !1 RA[1] $end
$var reg 1 !2 RA[0] $end
$var reg 1 !3 RB[55] $end
$var reg 1 !4 RB[54] $end
$var reg 1 !5 RB[53] $end
$var reg 1 !6 RB[52] $end
$var reg 1 !7 RB[51] $end
$var reg 1 !8 RB[50] $end
$var reg 1 !9 RB[49] $end
$var reg 1 !: RB[48] $end
$var reg 1 !; RB[47] $end
$var reg 1 !< RB[46] $end
$var reg 1 != RB[45] $end
$var reg 1 !> RB[44] $end
$var reg 1 !? RB[43] $end
$var reg 1 !@ RB[42] $end
$var reg 1 !A RB[41] $end
$var reg 1 !B RB[40] $end
$var reg 1 !C RB[39] $end
$var reg 1 !D RB[38] $end
$var reg 1 !E RB[37] $end
$var reg 1 !F RB[36] $end
$var reg 1 !G RB[35] $end
$var reg 1 !H RB[34] $end
$var reg 1 !I RB[33] $end
$var reg 1 !J RB[32] $end
$var reg 1 !K RB[31] $end
$var reg 1 !L RB[30] $end
$var reg 1 !M RB[29] $end
$var reg 1 !N RB[28] $end
$var reg 1 !O RB[27] $end
$var reg 1 !P RB[26] $end
$var reg 1 !Q RB[25] $end
$var reg 1 !R RB[24] $end
$var reg 1 !S RB[23] $end
$var reg 1 !T RB[22] $end
$var reg 1 !U RB[21] $end
$var reg 1 !V RB[20] $end
$var reg 1 !W RB[19] $end
$var reg 1 !X RB[18] $end
$var reg 1 !Y RB[17] $end
$var reg 1 !Z RB[16] $end
$var reg 1 ![ RB[15] $end
$var reg 1 !\ RB[14] $end
$var reg 1 !] RB[13] $end
$var reg 1 !^ RB[12] $end
$var reg 1 !_ RB[11] $end
$var reg 1 !` RB[10] $end
$var reg 1 !a RB[9] $end
$var reg 1 !b RB[8] $end
$var reg 1 !c RB[7] $end
$var reg 1 !d RB[6] $end
$var reg 1 !e RB[5] $end
$var reg 1 !f RB[4] $end
$var reg 1 !g RB[3] $end
$var reg 1 !h RB[2] $end
$var reg 1 !i RB[1] $end
$var reg 1 !j RB[0] $end
$var reg 1 !k opcode[9] $end
$var reg 1 !l opcode[8] $end
$var reg 1 !m opcode[7] $end
$var reg 1 !n opcode[6] $end
$var reg 1 !o opcode[5] $end
$var reg 1 !p opcode[4] $end
$var reg 1 !q opcode[3] $end
$var reg 1 !r opcode[2] $end
$var reg 1 !s opcode[1] $end
$var reg 1 !t opcode[0] $end
$var reg 1 !u RPC[15] $end
$var reg 1 !v RPC[14] $end
$var reg 1 !w RPC[13] $end
$var reg 1 !x RPC[12] $end
$var reg 1 !y RPC[11] $end
$var reg 1 !z RPC[10] $end
$var reg 1 !{ RPC[9] $end
$var reg 1 !| RPC[8] $end
$var reg 1 !} RPC[7] $end
$var reg 1 !~ RPC[6] $end
$var reg 1 "! RPC[5] $end
$var reg 1 "" RPC[4] $end
$var reg 1 "# RPC[3] $end
$var reg 1 "$ RPC[2] $end
$var reg 1 "% RPC[1] $end
$var reg 1 "& RPC[0] $end
$var reg 1 "' result_to_dst[55] $end
$var reg 1 "( result_to_dst[54] $end
$var reg 1 ") result_to_dst[53] $end
$var reg 1 "* result_to_dst[52] $end
$var reg 1 "+ result_to_dst[51] $end
$var reg 1 ", result_to_dst[50] $end
$var reg 1 "- result_to_dst[49] $end
$var reg 1 ". result_to_dst[48] $end
$var reg 1 "/ result_to_dst[47] $end
$var reg 1 "0 result_to_dst[46] $end
$var reg 1 "1 result_to_dst[45] $end
$var reg 1 "2 result_to_dst[44] $end
$var reg 1 "3 result_to_dst[43] $end
$var reg 1 "4 result_to_dst[42] $end
$var reg 1 "5 result_to_dst[41] $end
$var reg 1 "6 result_to_dst[40] $end
$var reg 1 "7 result_to_dst[39] $end
$var reg 1 "8 result_to_dst[38] $end
$var reg 1 "9 result_to_dst[37] $end
$var reg 1 ": result_to_dst[36] $end
$var reg 1 "; result_to_dst[35] $end
$var reg 1 "< result_to_dst[34] $end
$var reg 1 "= result_to_dst[33] $end
$var reg 1 "> result_to_dst[32] $end
$var reg 1 "? result_to_dst[31] $end
$var reg 1 "@ result_to_dst[30] $end
$var reg 1 "A result_to_dst[29] $end
$var reg 1 "B result_to_dst[28] $end
$var reg 1 "C result_to_dst[27] $end
$var reg 1 "D result_to_dst[26] $end
$var reg 1 "E result_to_dst[25] $end
$var reg 1 "F result_to_dst[24] $end
$var reg 1 "G result_to_dst[23] $end
$var reg 1 "H result_to_dst[22] $end
$var reg 1 "I result_to_dst[21] $end
$var reg 1 "J result_to_dst[20] $end
$var reg 1 "K result_to_dst[19] $end
$var reg 1 "L result_to_dst[18] $end
$var reg 1 "M result_to_dst[17] $end
$var reg 1 "N result_to_dst[16] $end
$var reg 1 "O result_to_dst[15] $end
$var reg 1 "P result_to_dst[14] $end
$var reg 1 "Q result_to_dst[13] $end
$var reg 1 "R result_to_dst[12] $end
$var reg 1 "S result_to_dst[11] $end
$var reg 1 "T result_to_dst[10] $end
$var reg 1 "U result_to_dst[9] $end
$var reg 1 "V result_to_dst[8] $end
$var reg 1 "W result_to_dst[7] $end
$var reg 1 "X result_to_dst[6] $end
$var reg 1 "Y result_to_dst[5] $end
$var reg 1 "Z result_to_dst[4] $end
$var reg 1 "[ result_to_dst[3] $end
$var reg 1 "\ result_to_dst[2] $end
$var reg 1 "] result_to_dst[1] $end
$var reg 1 "^ result_to_dst[0] $end
$var reg 1 "_ reg_path_a[55] $end
$var reg 1 "` reg_path_a[54] $end
$var reg 1 "a reg_path_a[53] $end
$var reg 1 "b reg_path_a[52] $end
$var reg 1 "c reg_path_a[51] $end
$var reg 1 "d reg_path_a[50] $end
$var reg 1 "e reg_path_a[49] $end
$var reg 1 "f reg_path_a[48] $end
$var reg 1 "g reg_path_a[47] $end
$var reg 1 "h reg_path_a[46] $end
$var reg 1 "i reg_path_a[45] $end
$var reg 1 "j reg_path_a[44] $end
$var reg 1 "k reg_path_a[43] $end
$var reg 1 "l reg_path_a[42] $end
$var reg 1 "m reg_path_a[41] $end
$var reg 1 "n reg_path_a[40] $end
$var reg 1 "o reg_path_a[39] $end
$var reg 1 "p reg_path_a[38] $end
$var reg 1 "q reg_path_a[37] $end
$var reg 1 "r reg_path_a[36] $end
$var reg 1 "s reg_path_a[35] $end
$var reg 1 "t reg_path_a[34] $end
$var reg 1 "u reg_path_a[33] $end
$var reg 1 "v reg_path_a[32] $end
$var reg 1 "w reg_path_a[31] $end
$var reg 1 "x reg_path_a[30] $end
$var reg 1 "y reg_path_a[29] $end
$var reg 1 "z reg_path_a[28] $end
$var reg 1 "{ reg_path_a[27] $end
$var reg 1 "| reg_path_a[26] $end
$var reg 1 "} reg_path_a[25] $end
$var reg 1 "~ reg_path_a[24] $end
$var reg 1 #! reg_path_a[23] $end
$var reg 1 #" reg_path_a[22] $end
$var reg 1 ## reg_path_a[21] $end
$var reg 1 #$ reg_path_a[20] $end
$var reg 1 #% reg_path_a[19] $end
$var reg 1 #& reg_path_a[18] $end
$var reg 1 #' reg_path_a[17] $end
$var reg 1 #( reg_path_a[16] $end
$var reg 1 #) reg_path_a[15] $end
$var reg 1 #* reg_path_a[14] $end
$var reg 1 #+ reg_path_a[13] $end
$var reg 1 #, reg_path_a[12] $end
$var reg 1 #- reg_path_a[11] $end
$var reg 1 #. reg_path_a[10] $end
$var reg 1 #/ reg_path_a[9] $end
$var reg 1 #0 reg_path_a[8] $end
$var reg 1 #1 reg_path_a[7] $end
$var reg 1 #2 reg_path_a[6] $end
$var reg 1 #3 reg_path_a[5] $end
$var reg 1 #4 reg_path_a[4] $end
$var reg 1 #5 reg_path_a[3] $end
$var reg 1 #6 reg_path_a[2] $end
$var reg 1 #7 reg_path_a[1] $end
$var reg 1 #8 reg_path_a[0] $end
$var reg 1 #9 seq_field_right[3] $end
$var reg 1 #: seq_field_right[2] $end
$var reg 1 #; seq_field_right[1] $end
$var reg 1 #< seq_field_right[0] $end
$var reg 1 #= seq_field_left[3] $end
$var reg 1 #> seq_field_left[2] $end
$var reg 1 #? seq_field_left[1] $end
$var reg 1 #@ seq_field_left[0] $end
$var reg 1 #A seq_shf_a[3] $end
$var reg 1 #B seq_shf_a[2] $end
$var reg 1 #C seq_shf_a[1] $end
$upscope $end
$var reg 1 #D clk_1MHz_o $end
$enddefinitions $end
#0
$dumpvars
X!
X"
X#
X$
X%
X&
X'
X(
X)
X*
X+
X,
X-
X.
X/
X0
X1
X2
X3
X4
X5
X6
X7
X8
X9
X:
X;
X<
X=
X>
X?
X@
XA
XB
XC
XD
XE
XF
XG
XH
XI
XJ
XK
XL
XM
XN
XO
XP
XQ
XR
XS
XT
XU
XV
XW
XX
XY
XZ
X[
X\
X]
X^
X_
X`
Xa
Xb
Xc
Xd
Xe
Xf
Xg
Xh
Xi
Xj
Xk
Xl
Xm
Xn
Xo
Xp
Xq
Xr
Xs
Xt
Xu
Xv
Xw
Xx
Xy
Xz
X{
X|
X}
X~
X!!
X!"
X!#
X!$
X!%
X!&
X!'
X!(
X!)
X!*
X!+
X!,
X!-
X!.
X!/
X!0
X!1
X!2
X!3
X!4
X!5
X!6
X!7
X!8
X!9
X!:
X!;
X!<
X!=
X!>
X!?
X!@
X!A
X!B
X!C
X!D
X!E
X!F
X!G
X!H
X!I
X!J
X!K
X!L
X!M
X!N
X!O
X!P
X!Q
X!R
X!S
X!T
X!U
X!V
X!W
X!X
X!Y
X!Z
X![
X!\
X!]
X!^
X!_
X!`
X!a
X!b
X!c
X!d
X!e
X!f
X!g
X!h
X!i
X!j
X!k
X!l
X!m
X!n
X!o
X!p
X!q
X!r
X!s
X!t
X!u
X!v
X!w
X!x
X!y
X!z
X!{
X!|
X!}
X!~
X"!
X""
X"#
X"$
X"%
X"&
X"'
X"(
X")
X"*
X"+
X",
X"-
X".
X"/
X"0
X"1
X"2
X"3
X"4
X"5
X"6
X"7
X"8
X"9
X":
X";
X"<
X"=
X">
X"?
X"@
X"A
X"B
X"C
X"D
X"E
X"F
X"G
X"H
X"I
X"J
X"K
X"L
X"M
X"N
X"O
X"P
X"Q
X"R
X"S
X"T
X"U
X"V
X"W
X"X
X"Y
X"Z
X"[
X"\
X"]
X"^
X"_
X"`
X"a
X"b
X"c
X"d
X"e
X"f
X"g
X"h
X"i
X"j
X"k
X"l
X"m
X"n
X"o
X"p
X"q
X"r
X"s
X"t
X"u
X"v
X"w
X"x
X"y
X"z
X"{
X"|
X"}
X"~
X#!
X#"
X##
X#$
X#%
X#&
X#'
X#(
X#)
X#*
X#+
X#,
X#-
X#.
X#/
X#0
X#1
X#2
X#3
X#4
X#5
X#6
X#7
X#8
X#9
X#:
X#;
X#<
X#=
X#>
X#?
X#@
X#A
X#B
X#C
0#D
$end
#500000
$comment Sample -64 (Start) $end
0!
0"
0#
0$
0%
0&
0'
0(
0)
0*
0+
0,
0-
0.
0/
00
01
02
03
04
05
06
07
08
09
0:
0;
0<
0=
0>
0?
0@
0A
0B
0C
0D
0E
0F
0G
0H
0I
0J
0K
0L
0M
0N
0O
0P
0Q
0R
0S
0T
0U
0V
0W
0X
0Y
0Z
0[
0\
0]
0^
0_
0`
0a
0b
0c
0d
0e
0f
0g
0h
0i
0j
0k
0l
0m
0n
0o
0p
0q
0r
0s
0t
0u
0v
0w
0x
0y
0z
0{
0|
0}
0~
0!!
0!"
0!#
0!$
0!%
0!&
0!'
0!(
0!)
0!*
0!+
0!,
0!-
0!.
0!/
0!0
0!1
0!2
0!3
0!4
0!5
0!6
0!7
0!8
0!9
0!:
0!;
0!<
0!=
0!>
0!?
0!@
0!A
0!B
0!C
0!D
0!E
0!F
0!G
0!H
0!I
0!J
0!K
0!L
0!M
0!N
0!O
0!P
0!Q
0!R
0!S
0!T
0!U
0!V
0!W
0!X
0!Y
0!Z
0![
0!\
0!]
0!^
0!_
0!`
0!a
0!b
0!c
0!d
0!e
0!f
0!g
0!h
0!i
0!j
0!k
0!l
0!m
0!n
0!o
0!p
0!q
0!r
0!s
0!t
0!u
0!v
0!w
0!x
0!y
0!z
0!{
0!|
0!}
0!~
0"!
0""
0"#
0"$
0"%
0"&
0"'
0"(
0")
0"*
0"+
0",
0"-
0".
0"/
0"0
0"1
0"2
0"3
0"4
0"5
0"6
0"7
0"8
0"9
0":
0";
0"<
0"=
0">
0"?
0"@
0"A
0"B
0"C
0"D
0"E
0"F
0"G
0"H
0"I
0"J
0"K
0"L
0"M
0"N
0"O
0"P
0"Q
0"R
0"S
0"T
0"U
0"V
0"W
0"X
0"Y
0"Z
0"[
0"\
0"]
0"^
0"_
0"`
0"a
0"b
0"c
0"d
0"e
0"f
0"g
0"h
0"i
0"j
0"k
0"l
0"m
0"n
0"o
0"p
0"q
0"r
0"s
0"t
0"u
0"v
0"w
0"x
0"y
0"z
0"{
0"|
0"}
0"~
0#!
0#"
0##
0#$
0#%
0#&
0#'
0#(
0#)
0#*
0#+
0#,
0#-
0#.
0#/
0#0
0#1
0#2
0#3
0#4
0#5
0#6
0#7
0#8
0#9
0#:
0#;
0#<
0#=
0#>
0#?
0#@
0#A
0#B
0#C
1#D
#1000000
0#D
#1500000
1#D
#2000000
0#D
#2500000
1#D
#3000000
0#D
#3500000
1#D
#4000000
0#D
#4500000
1#D
#5000000
0#D
#5500000
1#D
#6000000
0#D
#6500000
1#D
#7000000
0#D
#7500000
1#D
#8000000
0#D
#8500000
1#D
#9000000
0#D
#9500000
1#D
#10000000
0#D
#10500000
1#D
#11000000
0#D
#11500000
1#D
#12000000
0#D
#12500000
1#D
#13000000
0#D
#13500000
1#D
#14000000
0#D
#14500000
1#D
#15000000
0#D
#15500000
1#D
#16000000
0#D
#16500000
1#D
#17000000
0#D
#17500000
1#D
#18000000
0#D
#18500000
1#D
#19000000
0#D
#19500000
1#D
#20000000
0#D
#20500000
1#D
#21000000
0#D
#21500000
1#D
#22000000
0#D
#22500000
1#D
#23000000
0#D
#23500000
1#D
#24000000
0#D
#24500000
1#D
#25000000
0#D
#25500000
1#D
#26000000
0#D
#26500000
1#D
#27000000
0#D
#27500000
1#D
#28000000
0#D
#28500000
1#D
#29000000
0#D
#29500000
1#D
#30000000
0#D
#30500000
1#D
#31000000
0#D
#31500000
1#D
#32000000
0#D
#32500000
1#D
#33000000
0#D
#33500000
1#D
#34000000
0#D
#34500000
1#D
#35000000
0#D
#35500000
1#D
#36000000
0#D
#36500000
1#D
#37000000
0#D
#37500000
1#D
#38000000
0#D
#38500000
1#D
#39000000
0#D
#39500000
1#D
#40000000
0#D
#40500000
1#D
#41000000
0#D
#41500000
1#D
#42000000
0#D
#42500000
1#D
#43000000
0#D
#43500000
1#D
#44000000
0#D
#44500000
1#D
#45000000
0#D
#45500000
1#D
#46000000
0#D
#46500000
1#D
#47000000
0#D
#47500000
1#D
#48000000
0#D
#48500000
1#D
#49000000
0#D
#49500000
1#D
#50000000
0#D
#50500000
1#D
#51000000
0#D
#51500000
1#D
#52000000
0#D
#52500000
1#D
#53000000
0#D
#53500000
1#D
#54000000
0#D
#54500000
1#D
#55000000
0#D
#55500000
1#D
#56000000
0#D
#56500000
1#D
#57000000
0#D
#57500000
1#D
#58000000
0#D
#58500000
1#D
#59000000
0#D
#59500000
1#D
#60000000
0#D
#60500000
1#D
#61000000
0#D
#61500000
1#D
#62000000
0#D
#62500000
1#D
#63000000
0#D
#63500000
1#D
#64000000
0#D
#64500000
$comment Sample 0 (Trigger) $end
1#D
#65000000
0#D
#65500000
1"&
1#D
#66000000
0#D
#66500000
1!k
1!t
1#D
#67000000
0#D
#67500000
1"%
0"&
1#D
#68000000
0#D
#68500000
1#=
1#>
1#@
1#D
#69000000
0#D
#69500000
1#D
#70000000
0#D
#70500000
1#D
#71000000
0#D
#71500000
1!|
1!}
0"%
1#D
#72000000
0#D
#72500000
1"&
1#D
#73000000
0#D
#73500000
0!k
1#D
#74000000
0#D
#74500000
1"%
0"&
1#D
#75000000
0#D
#75500000
1#0
1#1
1#7
0#=
0#>
1#?
1#D
#76000000
0#D
#76500000
1"V
1"W
1"]
1#D
#77000000
0#D
#77500000
1#D
#78000000
0#D
#78500000
1!v
0!|
0!}
0"%
1#*
0#0
0#1
0#7
1#D
#79000000
0#D
#79500000
1"&
1"P
0"V
0"W
0"]
1#8
1#D
#80000000
0#D
#80500000
1!k
1!l
1!m
1!n
1!o
0!t
1"^
1#D
#81000000
0#D
#81500000
0#*
1#0
1#1
1#7
0#8
1#D
#82000000
0#D
#82500000
0"P
1"V
1"W
1"]
0"^
1#D
#83000000
0#D
#83500000
0!v
1!|
1!}
1"%
0"&
0#0
0#1
0#7
1#D
#84000000
0#D
#84500000
1"&
0"V
0"W
0"]
1#D
#85000000
0#D
#85500000
0!o
1!p
1!r
1!t
1#D
#86000000
0#D
#86500000
1"$
0"%
0"&
1#D
#87000000
0#D
#87500000
1#0
1#1
1#6
1#D
#88000000
0#D
#88500000
1"V
1"W
1"\
1#D
#89000000
0#D
#89500000
1#D
#90000000
0#D
#90500000
1!{
1!~
1"!
1""
1"&
1#/
1#2
1#3
1#4
1#8
1#D
#91000000
0#D
#91500000
1"%
0"&
1"U
1"X
1"Y
1"Z
1"^
1#7
0#8
1#D
#92000000
0#D
#92500000
0!k
0!m
0!n
1!o
0!r
0!t
1"]
0"^
1#D
#93000000
0#D
#93500000
1"&
1#8
1#D
#94000000
0#D
#94500000
1"^
0#0
1#5
0#7
0#@
1#D
#95000000
0#D
#95500000
0"V
1"[
0"]
1#D
#96000000
0#D
#96500000
1O
1Q
1R
1S
1T
1U
1V
1X
1#D
#97000000
0#D
#97500000
1"#
0"$
0"%
0"&
1#D
#98000000
0#D
#98500000
1!k
0!l
1!n
1#D
#99000000
0#D
#99500000
1#D
#100000000
0#D
#100500000
1#D
#101000000
0#D
#101500000
1#D
#102000000
0#D
#102500000
1"&
1#D
#103000000
0#D
#103500000
1!l
1!m
1#D
#104000000
0#D
#104500000
0#?
1#@
1#D
#105000000
0#D
#105500000
0"U
1#D
#106000000
0#D
#106500000
1#D
#107000000
0#D
#107500000
1"%
0"&
1#D
#108000000
0#D
#108500000
0!k
0!l
0!n
1!q
1#D
#109000000
0#D
#109500000
0#/
0#1
0#2
0#3
0#4
0#5
0#6
0#8
1#=
1#>
1#D
#110000000
0#D
#110500000
0"W
0"X
0"Y
0"Z
0"[
0"\
0"^
1#D
#111000000
0#D
#111500000
0O
0Q
0R
0S
0T
0U
0V
0X
1#D
#112000000
0#D
#112500000
1"&
1#D
#113000000
0#D
#113500000
0!m
0!o
0!q
1!r
1!t
1#D
#114000000
0#D
#114500000
1"$
0"%
0"&
1#D
#115000000
0#D
#115500000
1#D
#116000000
0#D
#116500000
1#D
#117000000
0#D
#117500000
1#D
#118000000
0#D
#118500000
0!|
0!}
0!~
0"!
0""
0"#
1"&
1#D
#119000000
0#D
#119500000
1"%
0"&
1#D
#120000000
0#D
#120500000
1!k
1!l
1!m
1!n
0!p
1!q
0!r
0!t
1#D
#121000000
0#D
#121500000
1#D
#122000000
0#D
#122500000
1#D
#123000000
0#D
#123500000
1#D
#124000000
0#D
#124500000
1"&
1#D
#125000000
0#D
#125500000
1!r
1#D
#126000000
0#D
#126500000
1#D
#127000000
0#D
#127500000
1#D
#128000000
0#D
#128500000
1#D
#129000000
0#D
#129500000
1"#
0"$
0"%
0"&
1#D
#130000000
0#D
#130500000
0!l
0!m
1!o
0!q
0!r
1#D
#131000000
0#D
#131500000
1#D
#132000000
0#D
#132500000
1#D
#133000000
0#D
#133500000
1#D
#134000000
0#D
#134500000
1"&
1#D
#135000000
0#D
#135500000
0!k
0!o
1!r
1!s
1#D
#136000000
0#D
#136500000
0#=
0#>
1#?
0#@
1#D
#137000000
0#D
#137500000
1#D
#138000000
0#D
#138500000
1#D
#139000000
0#D
#139500000
1"%
0"&
1#D
#140000000
0#D
#140500000
1!k
1!l
1!m
1!o
1!p
0!r
0!s
1#D
#141000000
0#D
#141500000
0#?
1#@
1#D
#142000000
0#D
#142500000
1#D
#143000000
0#D
#143500000
1#D
#144000000
0#D
#144500000
1"&
1#D
#145000000
0#D
#145500000
0!l
0!m
1#D
#146000000
0#D
#146500000
1#?
0#@
1#D
#147000000
0#D
#147500000
1#D
#148000000
0#D
#148500000
1#D
#149000000
0#D
#149500000
1"$
0"%
0"&
1#D
#150000000
0#D
#150500000
0!k
1!l
0!n
1#D
#151000000
0#D
#151500000
1"&
1#D
#152000000
0#D
#152500000
1#0
1#2
1#3
1#5
1#8
1#D
#153000000
0#D
#153500000
1"V
1"X
1"Y
1"[
1"^
1#D
#154000000
0#D
#154500000
1P
1R
1S
1U
1X
1#D
#155000000
0#D
#155500000
1"%
0"&
1#D
#156000000
0#D
#156500000
0!o
0!p
1!r
1!s
1#D
#157000000
0#D
#157500000
1#D
#158000000
0#D
#158500000
1#D
#159000000
0#D
#159500000
1!*
1!,
1!-
1!/
1!2
1#D
#160000000
0#D
#160500000
1"&
1#D
#161000000
0#D
#161500000
1!k
1!n
1!o
1!p
1!q
0!r
0!s
1#D
#162000000
0#D
#162500000
0#0
0#2
0#3
0#5
0#8
1#=
1#>
0#?
1#@
1#D
#163000000
0#D
#163500000
0"V
0"X
0"Y
0"[
0"^
1#D
#164000000
0#D
#164500000
0P
0R
0S
0U
0X
1#D
#165000000
0#D
#165500000
1""
0"#
0"$
0"%
0"&
1#D
#166000000
0#D
#166500000
0!k
1!r
1#D
#167000000
0#D
#167500000
1#B
1#C
1#D
#168000000
0#D
#168500000
1#D
#169000000
0#D
#169500000
1#D
#170000000
0#D
#170500000
1"&
1#D
#171000000
0#D
#171500000
1!k
0!p
0!q
1!s
1#D
#172000000
0#D
#172500000
1#0
1#2
1#3
1#5
1#8
0#=
0#>
1#?
0#@
0#B
0#C
1#D
#173000000
0#D
#173500000
1#D
#174000000
0#D
#174500000
1#D
#175000000
0#D
#175500000
1"%
0"&
1#D
#176000000
0#D
#176500000
0!k
0!n
0!o
1!q
1!t
1#D
#177000000
0#D
#177500000
1#=
1#>
0#?
1#@
1#D
#178000000
0#D
#178500000
1#D
#179000000
0#D
#179500000
1#D
#180000000
0#D
#180500000
1"!
1#D
#181000000
0#D
#181500000
1"&
1#D
#182000000
0#D
#182500000
1!k
0!l
1!n
1!o
0!q
0!r
0!s
0!t
1#D
#183000000
0#D
#183500000
1#D
#184000000
0#D
#184500000
1#D
#185000000
0#D
#185500000
1#D
#186000000
0#D
#186500000
1"$
0"%
0"&
1#D
#187000000
0#D
#187500000
0!k
1!l
1!m
0!n
1#D
#188000000
0#D
#188500000
1"V
1"X
1"Y
1"[
1"^
0#0
0#2
0#3
0#5
0#8
1#D
#189000000
0#D
#189500000
0"V
0"X
0"Y
0"[
0"^
1#D
#190000000
0#D
#190500000
0!*
0!,
0!-
0!/
0!2
1#D
#191000000
0#D
#191500000
1"&
1#D
#192000000
0#D
#192500000
0!m
1!n
0!o
1!p
1!q
1#D
#193000000
0#D
#193500000
1#D
#194000000
0#D
#194500000
1#D
#195000000
0#D
#195500000
1#D
#196000000
0#D
#196500000
1"%
0"&
1#D
#197000000
0#D
#197500000
0!l
1!o
0!q
1#D
#198000000
0#D
#198500000
1#D
#199000000
0#D
#199500000
1#D
#200000000
0#D
#200500000
1#D
#201000000
0#D
#201500000
1"&
1#D
#202000000
0#D
#202500000
0!o
1!q
1#D
#203000000
0#D
#203500000
0#=
0#>
1#D
#204000000
0#D
#204500000
1#D
#205000000
0#D
#205500000
1#D
#206000000
0#D
#206500000
1"#
0"$
0"%
0"&
1#D
#207000000
0#D
#207500000
1!k
1!l
1#D
#208000000
0#D
#208500000
1#D
#209000000
0#D
#209500000
1#D
#210000000
0#D
#210500000
1#D
#211000000
0#D
#211500000
1"&
1#D
#212000000
0#D
#212500000
0!l
1#D
#213000000
0#D
#213500000
1#)
1#D
#214000000
0#D
#214500000
1#D
#215000000
0#D
#215500000
1#D
#216000000
0#D
#216500000
1"%
0"&
1#D
#217000000
0#D
#217500000
0!k
1!l
1!o
0!q
1#D
#218000000
0#D
#218500000
1"O
0#)
1#?
1#C
1#D
#219000000
0#D
#219500000
0"O
1#D
#220000000
0#D
#220500000
1#D
#221000000
0#D
#221500000
1"&
1#D
#222000000
0#D
#222500000
1#D
#223000000
0#D
#223500000
1#D
#224000000
0#D
#224500000
1#D
#225000000
0#D
#225500000
1#D
#226000000
0#D
#226500000
1"$
0"%
0"&
1#D
#227000000
0#D
#227500000
1#D
#228000000
0#D
#228500000
1#D
#229000000
0#D
#229500000
1#D
#230000000
0#D
#230500000
1#D
#231000000
0#D
#231500000
1"&
1#D
#232000000
0#D
#232500000
1#D
#233000000
0#D
#233500000
1#D
#234000000
0#D
#234500000
1#D
#235000000
0#D
#235500000
1#D
#236000000
0#D
#236500000
1"%
0"&
1#D
#237000000
0#D
#237500000
0!l
1!m
0!p
1#D
#238000000
0#D
#238500000
1#=
1#>
0#?
0#C
1#D
#239000000
0#D
#239500000
1#D
#240000000
0#D
#240500000
1#D
#241000000
0#D
#241500000
1"&
1#D
#242000000
0#D
#242500000
1!k
0!o
1!p
1!q
1!r
1#D
#243000000
0#D
#243500000
1#5
1#6
1#8
1#D
#244000000
0#D
#244500000
1"[
1"\
1"^
1#D
#245000000
0#D
#245500000
1#D
#246000000
0#D
#246500000
1!~
0"!
0""
0"#
0"$
0"%
0"&
1#D
#247000000
0#D
#247500000
0!k
0!n
1!o
0!p
0!q
0!r
0#5
0#6
1#7
0#8
1#D
#248000000
0#D
#248500000
0"[
0"\
0"^
0#7
1#D
#249000000
0#D
#249500000
1#D
#250000000
0#D
